  o          o                    o         o                                        o__ __o         o__ __o__/_   o__ __o    ____o__ __o____              o           o__ __o    __o__ 
 <|\        /|>                  <|>       <|>                                      <|     v\       <|    v       /v     v\    /   \   /   \              <|>         <|     v\     |   
 / \\o    o// \                  / \       / \                                      / \     <\      < >          />       <\        \o/                   / \         / \     <\   / \  
 \o/ v\  /v \o/   o      o       \o/       \o/    __o__   o__  __o   \o__ __o       \o/     o/       |          _\o____              |                  o/   \o       \o/     o/   \o/  
  |   <\/>   |   <|>    <|>       |         |    />  \   /v      |>   |     |>       |__  _<|        o__/_           \_\__o__       < >                <|__ __|>       |__  _<|/    |   
 / \        / \  < >    < >      < >       < >   \o     />      //   / \   < >       |       \       |                     \         |                 /       \       |           < >  
 \o/        \o/   \o    o/        \         /     v\    \o    o/     \o/                   \o              \         /         o               o/         \o               |   
  |          |     v\  /v          o       o       <\    v\  /v __o   |              |         v\    |            o       o         <|              /v           v\    |            o   
 / \        / \     <\/>           <\__ __/>  _\o__ __/>  / \            / \         <\  / \  _\o__/_  <\__ __/>         / \            />             <\  / \         __|>_ 
                     /                                                                                                                                                                  
                    o                                                                                                                                                                   
                 __/>  
				 

 __  __         _    _                 _____  ______  _____ _______            _____ _____ 
|  \/  |       | |  | |               |  __ \|  ____|/ ____|__   __|     /\   |  __ \_   _|
| \  / |_   _  | |  | |___  ___ _ __  | |__) | |__  | (___    | |       /  \  | |__) || |  
| |\/| | | | | | |  | / __|/ _ \ '__| |  _  /|  __|  \___ \   | |      / /\ \ |  ___/ | |  
| |  | | |_| | | |__| \__ \  __/ |    | | \ \| |____ ____) |  | |     / ____ \| |    _| |_ 
|_|  |_|\__, |  \____/|___/\___|_|    |_|  \_\______|_____/   |_|    /_/    \_\_|   |_____|
         __/ |                                                                             
        |___/   
		
		
88b           d88                88        88                                    88888888ba  88888888888 ad88888ba 888888888888           db        88888888ba  88  
888b         d888                88        88                                    88      "8b 88         d8"     "8b     88               d88b       88      "8b 88  
88`8b       d8'88                88        88                                    88      ,8P 88         Y8,             88              d8'`8b      88      ,8P 88  
88 `8b     d8' 88 8b       d8    88        88 ,adPPYba,  ,adPPYba, 8b,dPPYba,    88aaaaaa8P' 88aaaaa    `Y8aaaaa,       88             d8'  `8b     88aaaaaa8P' 88  
88  `8b   d8'  88 `8b     d8'    88        88 I8[    "" a8P_____88 88P'   "Y8    88""""88'   88"""""      `"""""8b,     88            d8YaaaaY8b    88""""""'   88  
88   `8b d8'   88  `8b   d8'     88        88  `"Y8ba,  8PP""""""" 88            88    `8b   88                 `8b     88           d8""""""""8b   88          88  
88    `888'    88   `8b,d8'      Y8a.    .a8P aa    ]8I "8b,   ,aa 88            88     `8b  88         Y8a     a8P     88          d8'        `8b  88          88  
88     `8'     88     Y88'        `"Y8888Y"'  `"YbbdP"'  `"Ybbd8"' 88            88      `8b 88888888888 "Y88888P"      88         d8'          `8b 88          88  
                      d8'                                                                                                                                           
                     d8'                                                                                                                                            


${AnsiColor.GREEN}88b           d88                88        88                                    ${AnsiColor.RED}88888888ba  88888888888 ad88888ba 888888888888           db        88888888ba  88  
${AnsiColor.GREEN}888b         d888                88        88                                    ${AnsiColor.RED}88      "8b 88         d8"     "8b     88               d88b       88      "8b 88  
${AnsiColor.GREEN}88`8b       d8'88                88        88                                    ${AnsiColor.RED}88      ,8P 88         Y8,             88              d8'`8b      88      ,8P 88  
${AnsiColor.GREEN}88 `8b     d8' 88 8b       d8    88        88 ,adPPYba,  ,adPPYba, 8b,dPPYba,    ${AnsiColor.RED}88aaaaaa8P' 88aaaaa    `Y8aaaaa,       88             d8'  `8b     88aaaaaa8P' 88  
${AnsiColor.GREEN}88  `8b   d8'  88 `8b     d8'    88        88 I8[    "" a8P_____88 88P'   "Y8    ${AnsiColor.RED}88""""88'   88"""""      `"""""8b,     88            d8YaaaaY8b    88""""""'   88  
${AnsiColor.GREEN}88   `8b d8'   88  `8b   d8'     88        88  `"Y8ba,  8PP""""""" 88            ${AnsiColor.RED}88    `8b   88                 `8b     88           d8""""""""8b   88          88  
${AnsiColor.GREEN}88    `888'    88   `8b,d8'      Y8a.    .a8P aa    ]8I "8b,   ,aa 88            ${AnsiColor.RED}88     `8b  88         Y8a     a8P     88          d8'        `8b  88          88  
${AnsiColor.GREEN}88     `8'     88     Y88'        `"Y8888Y"'  `"YbbdP"'  `"Ybbd8"' 88            ${AnsiColor.RED}88      `8b 88888888888 "Y88888P"      88         d8'          `8b 88          88  
${AnsiColor.GREEN}                      d8'                                                                                                                                           
${AnsiColor.GREEN}                     d8'    

${AnsiColor.BRIGHT_BLUE}:: OVIOK 🤓  :: Running Spring Boot ${spring-boot.version} :: :: https://fr.vincent.tuto ::${AnsiColor.DEFAULT}   


.___  ___. ____    ____     __    __       _______. _______ .______         .______       _______     _______.___________.        ___      .______    __  
|   \/   | \   \  /   /    |  |  |  |     /       ||   ____||   _  \        |   _  \     |   ____|   /       |           |       /   \     |   _  \  |  | 
|  \  /  |  \   \/   /     |  |  |  |    |   (----`|  |__   |  |_)  |       |  |_)  |    |  |__     |   (----`---|  |----`      /  ^  \    |  |_)  | |  | 
|  |\/|  |   \_    _/      |  |  |  |     \   \    |   __|  |      /        |      /     |   __|     \   \       |  |          /  /_\  \   |   ___/  |  | 
|  |  |  |     |  |        |  `--'  | .----)   |   |  |____ |  |\  \----.   |  |\  \----.|  |____.----)   |      |  |         /  _____  \  |  |      |  | 
|__|  |__|     |__|         \______/  |_______/    |_______|| _| `._____|   | _| `._____||_______|_______/       |__|        /__/     \__\ | _|      |__| 
                                                                                                                                                         
                                                                                                                                                         
                                                                                                                                                          					 